AvgSpotLen	BioSample	Experiment	Instrument	LoadDate	MBases	MBytes	Run	SRA_Sample	Sample_Name	animal_id	average_insert_length	chemical	dose	duration	ercc_mapping_ratio	ercc_spike_in	mode_of_action	read_depth	read_length	rna_id	rna_quality_rin	route	sequencing_date	sequencing_platform	vehicle	vehicle_route_designation	Assay_Type	BioProject	Center_Name	Consent	DATASTORE_filetype	DATASTORE_provider	InsertSize	LibraryLayout	LibrarySelection	LibrarySource	Organism	Platform	ReleaseDate	SRA_Study	Sex	organ_or_cell_type	source_name	strain	tissue
100	SAMN02666176	SRX477246	Illumina HiScanSQ	2015-12-15	1711	1224	SRR1177960	SRS562941	GSM1336239	S011113-048	160	BETA-ESTRADIOL	150 mg/kg	5 d	2.29	Mix1	ER	17,947,704	2x50 nt	97364	9.7	ORAL GAVAGE	4/28/2012	HiScan SQ	CORN OIL 100 %	NU_OG	RNA-Seq	PRJNA239561	GEO	public	sra	ncbi	0	PAIRED	cDNA	TRANSCRIPTOMIC	Rattus norvegicus	ILLUMINA	2015-07-22	SRP039021	M	LIVER	Liver	Sprague-Dawley	liver
202	SAMN02666100	SRX477191	Illumina HiScanSQ	2015-12-15	3519	2543	SRR1177961	SRS562885	GSM1336184	S020115-239	179	PHENOBARBITAL	54 mg/kg	5 d	0.43	Mix1	CAR/PXR	18,269,824	2x101 nt	97922	9.7	ORAL GAVAGE	9/30/2011	HiScan SQ	WATER 100 %	NN_OG	RNA-Seq	PRJNA239561	GEO	public	sra	ncbi	0	PAIRED	cDNA	TRANSCRIPTOMIC	Rattus norvegicus	ILLUMINA	2015-07-22	SRP039021	M	LIVER	Liver	Sprague-Dawley	liver
202	SAMN02666095	SRX477192	Illumina HiScanSQ	2015-12-15	3395	2494	SRR1177962	SRS562887	GSM1336185	S020115-240	181	PHENOBARBITAL	54 mg/kg	5 d	0.45	Mix1	CAR/PXR	17,627,564	2x101 nt	97998	9.7	ORAL GAVAGE	9/30/2011	HiScan SQ	WATER 100 %	NN_OG	RNA-Seq	PRJNA239561	GEO	public	sra	ncbi	0	PAIRED	cDNA	TRANSCRIPTOMIC	Rattus norvegicus	ILLUMINA	2015-07-22	SRP039021	M	LIVER	Liver	Sprague-Dawley	liver
202	SAMN02666106	SRX477193	Illumina HiScanSQ	2015-12-15	3447	2555	SRR1177963	SRS562888	GSM1336186	S030218-122	172	PIRINIXIC ACID	364 mg/kg	5 d	0.79	Mix2	PPARA	17,896,530	2x101 nt	98379	9.7	ORAL GAVAGE	9/30/2011	HiScan SQ	CMC .5 %	NN_OG	RNA-Seq	PRJNA239561	GEO	public	sra	ncbi	0	PAIRED	cDNA	TRANSCRIPTOMIC	Rattus norvegicus	ILLUMINA	2015-07-22	SRP039021	M	LIVER	Liver	Sprague-Dawley	liver
202	SAMN02666098	SRX477194	Illumina HiScanSQ	2015-12-15	3726	2741	SRR1177964	SRS562889	GSM1336187	S030218-120	174	PIRINIXIC ACID	364 mg/kg	5 d	0.81	Mix2	PPARA	19,342,390	2x101 nt	98455	9.7	ORAL GAVAGE	9/30/2011	HiScan SQ	CMC .5 %	NN_OG	RNA-Seq	PRJNA239561	GEO	public	sra	ncbi	0	PAIRED	cDNA	TRANSCRIPTOMIC	Rattus norvegicus	ILLUMINA	2015-07-22	SRP039021	M	LIVER	Liver	Sprague-Dawley	liver
202	SAMN02666097	SRX477195	Illumina HiScanSQ	2015-12-15	3245	2401	SRR1177965	SRS562890	GSM1336188	S030218-121	179	PIRINIXIC ACID	364 mg/kg	5 d	0.72	Mix2	PPARA	16,848,750	2x101 nt	98518	9.6	ORAL GAVAGE	9/30/2011	HiScan SQ	CMC .5 %	NN_OG	RNA-Seq	PRJNA239561	GEO	public	sra	ncbi	0	PAIRED	cDNA	TRANSCRIPTOMIC	Rattus norvegicus	ILLUMINA	2015-07-22	SRP039021	M	LIVER	Liver	Sprague-Dawley	liver
202	SAMN02666093	SRX477196	Illumina HiScanSQ	2015-12-15	3655	2638	SRR1177966	SRS562891	GSM1336189	CVD040520-130	174	THIOACETAMIDE	200 mg/kg	5 d	0.81	Mix1	Cytotoxic	18,974,104	2x101 nt	98573	8.9	INTRAPERITONEAL	9/30/2011	HiScan SQ	SALINE 100 %	NN_IP	RNA-Seq	PRJNA239561	GEO	public	sra	ncbi	0	PAIRED	cDNA	TRANSCRIPTOMIC	Rattus norvegicus	ILLUMINA	2015-07-22	SRP039021	M	LIVER	Liver	Sprague-Dawley	liver
202	SAMN02666113	SRX477197	Illumina HiScanSQ	2015-12-15	3305	2422	SRR1177967	SRS562892	GSM1336190	S011002-179	169	BEZAFIBRATE	617 mg/kg	7 d	0.63	Mix1	PPARA	17,156,690	2x101 nt	98576	9.4	ORAL GAVAGE	9/30/2011	HiScan SQ	CORN OIL 100 %	NU_OG	RNA-Seq	PRJNA239561	GEO	public	sra	ncbi	0	PAIRED	cDNA	TRANSCRIPTOMIC	Rattus norvegicus	ILLUMINA	2015-07-22	SRP039021	M	LIVER	Liver	Sprague-Dawley	liver
202	SAMN02666094	SRX477198	Illumina HiScanSQ	2015-12-15	3391	2477	SRR1177968	SRS562893	GSM1336191	S011002-180	170	BEZAFIBRATE	617 mg/kg	7 d	0.77	Mix1	PPARA	17,603,540	2x101 nt	98658	9.2	ORAL GAVAGE	9/30/2011	HiScan SQ	CORN OIL 100 %	NU_OG	RNA-Seq	PRJNA239561	GEO	public	sra	ncbi	0	PAIRED	cDNA	TRANSCRIPTOMIC	Rattus norvegicus	ILLUMINA	2015-07-22	SRP039021	M	LIVER	Liver	Sprague-Dawley	liver
202	SAMN02666096	SRX477199	Illumina HiScanSQ	2015-12-15	3719	2732	SRR1177969	SRS562894	GSM1336192	CVD040520-131	177	THIOACETAMIDE	200 mg/kg	5 d	0.58	Mix1	Cytotoxic	19,309,756	2x101 nt	98678	9.6	INTRAPERITONEAL	9/30/2011	HiScan SQ	SALINE 100 %	NN_IP	RNA-Seq	PRJNA239561	GEO	public	sra	ncbi	0	PAIRED	cDNA	TRANSCRIPTOMIC	Rattus norvegicus	ILLUMINA	2015-07-22	SRP039021	M	LIVER	Liver	Sprague-Dawley	liver
202	SAMN02666107	SRX477200	Illumina HiScanSQ	2015-12-15	3683	2718	SRR1177970	SRS562895	GSM1336193	CVD040520-132	172	THIOACETAMIDE	200 mg/kg	5 d	0.77	Mix1	Cytotoxic	19,119,100	2x101 nt	98726	9.4	INTRAPERITONEAL	9/30/2011	HiScan SQ	SALINE 100 %	NN_IP	RNA-Seq	PRJNA239561	GEO	public	sra	ncbi	0	PAIRED	cDNA	TRANSCRIPTOMIC	Rattus norvegicus	ILLUMINA	2015-07-22	SRP039021	M	LIVER	Liver	Sprague-Dawley	liver
202	SAMN02666105	SRX477201	Illumina HiScanSQ	2015-12-15	3781	2783	SRR1177971	SRS562896	GSM1336194	S011002-178	177	BEZAFIBRATE	617 mg/kg	7 d	0.61	Mix1	PPARA	19,626,596	2x101 nt	98800	9.3	ORAL GAVAGE	9/30/2011	HiScan SQ	CORN OIL 100 %	NU_OG	RNA-Seq	PRJNA239561	GEO	public	sra	ncbi	0	PAIRED	cDNA	TRANSCRIPTOMIC	Rattus norvegicus	ILLUMINA	2015-07-22	SRP039021	M	LIVER	Liver	Sprague-Dawley	liver
202	SAMN02666115	SRX477202	Illumina HiScanSQ	2015-12-15	3441	2541	SRR1177972	SRS562897	GSM1336195	S040311-097	169	NAFENOPIN	338 mg/kg	5 d	0.77	Mix2	PPARA	17,862,450	2x101 nt	98842	9.6	ORAL GAVAGE	9/30/2011	HiScan SQ	CORN OIL 100 %	NU_OG	RNA-Seq	PRJNA239561	GEO	public	sra	ncbi	0	PAIRED	cDNA	TRANSCRIPTOMIC	Rattus norvegicus	ILLUMINA	2015-07-22	SRP039021	M	LIVER	Liver	Sprague-Dawley	liver
202	SAMN02666112	SRX477203	Illumina HiScanSQ	2015-12-15	3003	2205	SRR1177973	SRS562898	GSM1336196	S010924-011	174	Vehicle	.	7 d	0.81	Mix2	Control	15,587,780	2x101 nt	98848	9.4	ORAL GAVAGE	9/30/2011	HiScan SQ	CORN OIL 100 %	NU_OG	RNA-Seq	PRJNA239561	GEO	public	sra	ncbi	0	PAIRED	cDNA	TRANSCRIPTOMIC	Rattus norvegicus	ILLUMINA	2015-07-22	SRP039021	M	LIVER	Liver	Sprague-Dawley	liver
202	SAMN02666102	SRX477204	Illumina HiScanSQ	2015-12-15	3574	2635	SRR1177974	SRS562899	GSM1336197	S010924-082	173	CARBON TETRACHLORIDE	1175 mg/kg	7 d	0.68	Mix1	Cytotoxic	18,554,576	2x101 nt	98858	9.8	ORAL GAVAGE	9/30/2011	HiScan SQ	CORN OIL 100 %	NU_OG	RNA-Seq	PRJNA239561	GEO	public	sra	ncbi	0	PAIRED	cDNA	TRANSCRIPTOMIC	Rattus norvegicus	ILLUMINA	2015-07-22	SRP039021	M	LIVER	Liver	Sprague-Dawley	liver
202	SAMN02666118	SRX477205	Illumina HiScanSQ	2015-12-15	3843	2831	SRR1177975	SRS562900	GSM1336198	S040311-098	171	NAFENOPIN	338 mg/kg	5 d	0.86	Mix2	PPARA	19,948,500	2x101 nt	98864	9.3	ORAL GAVAGE	9/30/2011	HiScan SQ	CORN OIL 100 %	NU_OG	RNA-Seq	PRJNA239561	GEO	public	sra	ncbi	0	PAIRED	cDNA	TRANSCRIPTOMIC	Rattus norvegicus	ILLUMINA	2015-07-22	SRP039021	M	LIVER	Liver	Sprague-Dawley	liver
202	SAMN02666116	SRX477206	Illumina HiScanSQ	2015-12-15	3127	2309	SRR1177976	SRS562901	GSM1336199	S010924-083	177	CARBON TETRACHLORIDE	1175 mg/kg	7 d	0.76	Mix1	Cytotoxic	16,235,480	2x101 nt	98873	9.8	ORAL GAVAGE	9/30/2011	HiScan SQ	CORN OIL 100 %	NU_OG	RNA-Seq	PRJNA239561	GEO	public	sra	ncbi	0	PAIRED	cDNA	TRANSCRIPTOMIC	Rattus norvegicus	ILLUMINA	2015-07-22	SRP039021	M	LIVER	Liver	Sprague-Dawley	liver
202	SAMN02666114	SRX477207	Illumina HiScanSQ	2015-12-15	3729	2778	SRR1177977	SRS562902	GSM1336200	S040311-096	173	NAFENOPIN	338 mg/kg	5 d	0.56	Mix2	PPARA	19,358,964	2x101 nt	98911	9.4	ORAL GAVAGE	9/30/2011	HiScan SQ	CORN OIL 100 %	NU_OG	RNA-Seq	PRJNA239561	GEO	public	sra	ncbi	0	PAIRED	cDNA	TRANSCRIPTOMIC	Rattus norvegicus	ILLUMINA	2015-07-22	SRP039021	M	LIVER	Liver	Sprague-Dawley	liver
202	SAMN02666101	SRX477208	Illumina HiScanSQ	2015-12-15	3771	2730	SRR1177978	SRS562903	GSM1336201	S020923-118	178	AFLATOXIN B1	0.3 mg/kg	5 d	0.73	Mix2	DNA Damage	19,577,750	2x101 nt	99320	7.7	ORAL GAVAGE	9/30/2011	HiScan SQ	CMC .5 %	NN_OG	RNA-Seq	PRJNA239561	GEO	public	sra	ncbi	0	PAIRED	cDNA	TRANSCRIPTOMIC	Rattus norvegicus	ILLUMINA	2015-07-22	SRP039021	M	LIVER	Liver	Sprague-Dawley	liver
202	SAMN02666111	SRX477209	Illumina HiScanSQ	2015-12-15	3394	2500	SRR1177979	SRS562904	GSM1336202	S020923-119	172	AFLATOXIN B1	0.3 mg/kg	5 d	0.89	Mix2	DNA Damage	17,619,410	2x101 nt	99328	7.9	ORAL GAVAGE	9/30/2011	HiScan SQ	CMC .5 %	NN_OG	RNA-Seq	PRJNA239561	GEO	public	sra	ncbi	0	PAIRED	cDNA	TRANSCRIPTOMIC	Rattus norvegicus	ILLUMINA	2015-07-22	SRP039021	M	LIVER	Liver	Sprague-Dawley	liver
202	SAMN02666104	SRX477210	Illumina HiScanSQ	2015-12-15	2780	2038	SRR1177980	SRS562905	GSM1336203	S020923-120	176	AFLATOXIN B1	0.3 mg/kg	5 d	0.99	Mix2	DNA Damage	14,430,265	2x101 nt	99336	7.4	ORAL GAVAGE	9/30/2011	HiScan SQ	CMC .5 %	NN_OG	RNA-Seq	PRJNA239561	GEO	public	sra	ncbi	0	PAIRED	cDNA	TRANSCRIPTOMIC	Rattus norvegicus	ILLUMINA	2015-07-22	SRP039021	M	LIVER	Liver	Sprague-Dawley	liver
202	SAMN02666109	SRX477211	Illumina HiScanSQ	2015-12-15	2741	1997	SRR1177981	SRS562906	GSM1336204	I011106-045	165	IFOSFAMIDE	143 mg/kg	3 d	1.07	Mix1	DNA Damage	14,228,805	2x101 nt	99534	9.2	ORAL GAVAGE	9/30/2011	HiScan SQ	SALINE 100 %	NN_OG	RNA-Seq	PRJNA239561	GEO	public	sra	ncbi	0	PAIRED	cDNA	TRANSCRIPTOMIC	Rattus norvegicus	ILLUMINA	2015-07-22	SRP039021	M	LIVER	Liver	Sprague-Dawley	liver
202	SAMN02666108	SRX477212	Illumina HiScanSQ	2015-12-15	3307	2442	SRR1177982	SRS562907	GSM1336205	I011106-043	179	IFOSFAMIDE	143 mg/kg	3 d	0.62	Mix1	DNA Damage	17,167,780	2x101 nt	99564	9.2	ORAL GAVAGE	9/30/2011	HiScan SQ	SALINE 100 %	NN_OG	RNA-Seq	PRJNA239561	GEO	public	sra	ncbi	0	PAIRED	cDNA	TRANSCRIPTOMIC	Rattus norvegicus	ILLUMINA	2015-07-22	SRP039021	M	LIVER	Liver	Sprague-Dawley	liver
202	SAMN02666103	SRX477213	Illumina HiScanSQ	2015-12-15	3111	2282	SRR1177983	SRS562908	GSM1336206	I011106-044	165	IFOSFAMIDE	143 mg/kg	3 d	0.86	Mix1	DNA Damage	16,151,200	2x101 nt	99586	9	ORAL GAVAGE	9/30/2011	HiScan SQ	SALINE 100 %	NN_OG	RNA-Seq	PRJNA239561	GEO	public	sra	ncbi	0	PAIRED	cDNA	TRANSCRIPTOMIC	Rattus norvegicus	ILLUMINA	2015-07-22	SRP039021	M	LIVER	Liver	Sprague-Dawley	liver
202	SAMN02666099	SRX477214	Illumina HiScanSQ	2015-12-15	3030	2226	SRR1177984	SRS562909	GSM1336207	CVD040520-118	170	N-NITROSODIMETHYLAMINE	10 mg/kg	5 d	0.84	Mix1	DNA Damage	15,731,175	2x101 nt	99697	9.5	INTRAPERITONEAL	9/30/2011	HiScan SQ	SALINE 100 %	NN_IP	RNA-Seq	PRJNA239561	GEO	public	sra	ncbi	0	PAIRED	cDNA	TRANSCRIPTOMIC	Rattus norvegicus	ILLUMINA	2015-07-22	SRP039021	M	LIVER	Liver	Sprague-Dawley	liver
202	SAMN02666117	SRX477215	Illumina HiScanSQ	2015-12-15	3185	2290	SRR1177985	SRS562910	GSM1336208	CVD040520-116	168	N-NITROSODIMETHYLAMINE	10 mg/kg	5 d	1.1	Mix1	DNA Damage	16,537,085	2x101 nt	99746	9.3	INTRAPERITONEAL	9/30/2011	HiScan SQ	SALINE 100 %	NN_IP	RNA-Seq	PRJNA239561	GEO	public	sra	ncbi	0	PAIRED	cDNA	TRANSCRIPTOMIC	Rattus norvegicus	ILLUMINA	2015-07-22	SRP039021	M	LIVER	Liver	Sprague-Dawley	liver
202	SAMN02666133	SRX477216	Illumina HiScanSQ	2015-12-15	2997	2193	SRR1177986	SRS562911	GSM1336209	CVD040520-117	175	N-NITROSODIMETHYLAMINE	10 mg/kg	5 d	0.79	Mix1	DNA Damage	15,559,355	2x101 nt	99747	9.4	INTRAPERITONEAL	9/30/2011	HiScan SQ	SALINE 100 %	NN_IP	RNA-Seq	PRJNA239561	GEO	public	sra	ncbi	0	PAIRED	cDNA	TRANSCRIPTOMIC	Rattus norvegicus	ILLUMINA	2015-07-22	SRP039021	M	LIVER	Liver	Sprague-Dawley	liver
202	SAMN02666120	SRX477217	Illumina HiScanSQ	2015-12-15	3358	2486	SRR1177987	SRS562912	GSM1336210	S030120-112	177	CHLOROFORM	600 mg/kg	5 d	0.7	Mix1	Cytotoxic	17,432,510	2x101 nt	99837	9.7	ORAL GAVAGE	9/30/2011	HiScan SQ	CORN OIL 100 %	NU_OG	RNA-Seq	PRJNA239561	GEO	public	sra	ncbi	0	PAIRED	cDNA	TRANSCRIPTOMIC	Rattus norvegicus	ILLUMINA	2015-07-22	SRP039021	M	LIVER	Liver	Sprague-Dawley	liver
202	SAMN02666134	SRX477218	Illumina HiScanSQ	2015-12-15	3538	2633	SRR1177988	SRS562913	GSM1336211	S030120-113	181	CHLOROFORM	600 mg/kg	5 d	0.43	Mix1	Cytotoxic	18,367,656	2x101 nt	99844	10	ORAL GAVAGE	9/30/2011	HiScan SQ	CORN OIL 100 %	NU_OG	RNA-Seq	PRJNA239561	GEO	public	sra	ncbi	0	PAIRED	cDNA	TRANSCRIPTOMIC	Rattus norvegicus	ILLUMINA	2015-07-22	SRP039021	M	LIVER	Liver	Sprague-Dawley	liver
202	SAMN02666121	SRX477219	Illumina HiScanSQ	2015-12-15	3622	2670	SRR1177989	SRS562914	GSM1336212	S030120-114	176	CHLOROFORM	600 mg/kg	5 d	0.49	Mix1	Cytotoxic	18,804,190	2x101 nt	99846	9.7	ORAL GAVAGE	9/30/2011	HiScan SQ	CORN OIL 100 %	NU_OG	RNA-Seq	PRJNA239561	GEO	public	sra	ncbi	0	PAIRED	cDNA	TRANSCRIPTOMIC	Rattus norvegicus	ILLUMINA	2015-07-22	SRP039021	M	LIVER	Liver	Sprague-Dawley	liver
202	SAMN02666188	SRX477220	Illumina HiScanSQ	2015-12-15	3989	2894	SRR1177990	SRS562915	GSM1336213	S020205-283	178	METHIMAZOLE	100 mg/kg	3 d	0.43	Mix1	CAR/PXR	20,711,716	2x101 nt	50944	9.8	ORAL GAVAGE	8/28/2011	HiScan SQ	WATER 100 %	NN_OG	RNA-Seq	PRJNA239561	GEO	public	sra	ncbi	0	PAIRED	cDNA	TRANSCRIPTOMIC	Rattus norvegicus	ILLUMINA	2015-07-22	SRP039021	M	LIVER	Liver	Sprague-Dawley	liver
202	SAMN02666202	SRX477221	Illumina HiScanSQ	2015-12-15	4432	3195	SRR1177991	SRS562916	GSM1336214	S020205-284	174	METHIMAZOLE	100 mg/kg	3 d	0.45	Mix1	CAR/PXR	23,008,060	2x101 nt	50980	9.5	ORAL GAVAGE	8/28/2011	HiScan SQ	WATER 100 %	NN_OG	RNA-Seq	PRJNA239561	GEO	public	sra	ncbi	0	PAIRED	cDNA	TRANSCRIPTOMIC	Rattus norvegicus	ILLUMINA	2015-07-22	SRP039021	M	LIVER	Liver	Sprague-Dawley	liver
202	SAMN02666192	SRX477222	Illumina HiScanSQ	2015-12-15	4268	3031	SRR1177992	SRS562917	GSM1336215	S020205-285	177	METHIMAZOLE	100 mg/kg	3 d	0.63	Mix1	CAR/PXR	22,160,080	2x101 nt	51024	9.7	ORAL GAVAGE	8/28/2011	HiScan SQ	WATER 100 %	NN_OG	RNA-Seq	PRJNA239561	GEO	public	sra	ncbi	0	PAIRED	cDNA	TRANSCRIPTOMIC	Rattus norvegicus	ILLUMINA	2015-07-22	SRP039021	M	LIVER	Liver	Sprague-Dawley	liver
202	SAMN02666191	SRX477223	Illumina HiScanSQ	2015-12-15	3818	2746	SRR1177993	SRS562918	GSM1336216	S011016-155	175	ECONAZOLE	334 mg/kg	5 d	0.43	Mix1	CAR/PXR	19,823,884	2x101 nt	97186	9.7	ORAL GAVAGE	8/28/2011	HiScan SQ	CORN OIL 100 %	NU_OG	RNA-Seq	PRJNA239561	GEO	public	sra	ncbi	0	PAIRED	cDNA	TRANSCRIPTOMIC	Rattus norvegicus	ILLUMINA	2015-07-22	SRP039021	M	LIVER	Liver	Sprague-Dawley	liver
202	SAMN02666203	SRX477224	Illumina HiScanSQ	2015-12-15	4054	2878	SRR1177994	SRS562919	GSM1336217	S011016-156	174	ECONAZOLE	334 mg/kg	5 d	0.56	Mix1	CAR/PXR	21,044,530	2x101 nt	97266	9.7	ORAL GAVAGE	8/28/2011	HiScan SQ	CORN OIL 100 %	NU_OG	RNA-Seq	PRJNA239561	GEO	public	sra	ncbi	0	PAIRED	cDNA	TRANSCRIPTOMIC	Rattus norvegicus	ILLUMINA	2015-07-22	SRP039021	M	LIVER	Liver	Sprague-Dawley	liver
202	SAMN02666196	SRX477225	Illumina HiScanSQ	2015-12-28	3882	2814	SRR1177995	SRS562920	GSM1336218	S011016-154	176	ECONAZOLE	334 mg/kg	5 d	0.47	Mix1	CAR/PXR	20,151,550	2x101 nt	97577	9.6	ORAL GAVAGE	8/28/2011	HiScan SQ	CORN OIL 100 %	NU_OG	RNA-Seq	PRJNA239561	GEO	public	sra	ncbi	0	PAIRED	cDNA	TRANSCRIPTOMIC	Rattus norvegicus	ILLUMINA	2015-07-22	SRP039021	M	LIVER	Liver	Sprague-Dawley	liver
202	SAMN02666200	SRX477226	Illumina HiScanSQ	2015-11-30	4133	2996	SRR1177996	SRS562921	GSM1336219	S020115-238	180	PHENOBARBITAL	54 mg/kg	5 d	0.39	Mix1	CAR/PXR	21,456,000	2x101 nt	97849	9.6	ORAL GAVAGE	8/28/2011	HiScan SQ	WATER 100 %	NN_OG	RNA-Seq	PRJNA239561	GEO	public	sra	ncbi	0	PAIRED	cDNA	TRANSCRIPTOMIC	Rattus norvegicus	ILLUMINA	2015-07-22	SRP039021	M	LIVER	Liver	Sprague-Dawley	liver
202	SAMN02666206	SRX477227	Illumina HiScanSQ	2015-12-15	3804	2762	SRR1177997	SRS562922	GSM1336220	R030916-047	176	3-METHYLCHOLANTHRENE	300 mg/kg	5 d	0.47	Mix1	AhR	19,746,696	2x101 nt	98326	9.5	ORAL GAVAGE	8/28/2011	HiScan SQ	CMC .5 %	NN_OG	RNA-Seq	PRJNA239561	GEO	public	sra	ncbi	0	PAIRED	cDNA	TRANSCRIPTOMIC	Rattus norvegicus	ILLUMINA	2015-07-22	SRP039021	M	LIVER	Liver	Sprague-Dawley	liver
202	SAMN02666197	SRX477228	Illumina HiScanSQ	2015-12-15	4548	3297	SRR1177998	SRS562923	GSM1336221	R030916-072	180	BETA-NAPHTHOFLAVONE	1500 mg/kg	5 d	0.54	Mix1	AhR	23,610,270	2x101 nt	98377	9.4	ORAL GAVAGE	8/28/2011	HiScan SQ	CMC .5 %	NN_OG	RNA-Seq	PRJNA239561	GEO	public	sra	ncbi	0	PAIRED	cDNA	TRANSCRIPTOMIC	Rattus norvegicus	ILLUMINA	2015-07-22	SRP039021	M	LIVER	Liver	Sprague-Dawley	liver
202	SAMN02666201	SRX477229	Illumina HiScanSQ	2015-12-15	4207	3053	SRR1177999	SRS562924	GSM1336222	R030916-048	175	3-METHYLCHOLANTHRENE	300 mg/kg	5 d	0.5	Mix1	AhR	21,838,416	2x101 nt	98388	9.3	ORAL GAVAGE	8/28/2011	HiScan SQ	CMC .5 %	NN_OG	RNA-Seq	PRJNA239561	GEO	public	sra	ncbi	0	PAIRED	cDNA	TRANSCRIPTOMIC	Rattus norvegicus	ILLUMINA	2015-07-22	SRP039021	M	LIVER	Liver	Sprague-Dawley	liver
202	SAMN02666207	SRX477230	Illumina HiScanSQ	2015-12-15	3698	2648	SRR1178000	SRS562925	GSM1336223	R020514-019	175	Vehicle	.	5 d	0.58	Mix2	Control	19,200,064	2x101 nt	98432	9.2	ORAL GAVAGE	8/28/2011	HiScan SQ	CMC .5 %	NN_OG	RNA-Seq	PRJNA239561	GEO	public	sra	ncbi	0	PAIRED	cDNA	TRANSCRIPTOMIC	Rattus norvegicus	ILLUMINA	2015-07-22	SRP039021	M	LIVER	Liver	Sprague-Dawley	liver
202	SAMN02666195	SRX477231	Illumina HiScanSQ	2015-12-15	4803	3441	SRR1178001	SRS562926	GSM1336224	R030916-070	177	BETA-NAPHTHOFLAVONE	1500 mg/kg	5 d	0.41	Mix1	AhR	24,936,280	2x101 nt	98449	9.5	ORAL GAVAGE	8/28/2011	HiScan SQ	CMC .5 %	NN_OG	RNA-Seq	PRJNA239561	GEO	public	sra	ncbi	0	PAIRED	cDNA	TRANSCRIPTOMIC	Rattus norvegicus	ILLUMINA	2015-07-22	SRP039021	M	LIVER	Liver	Sprague-Dawley	liver
202	SAMN02666205	SRX477232	Illumina HiScanSQ	2015-12-15	3630	2603	SRR1178002	SRS562927	GSM1336225	R030916-046	181	3-METHYLCHOLANTHRENE	300 mg/kg	5 d	0.49	Mix1	AhR	18,844,830	2x101 nt	98512	9.4	ORAL GAVAGE	8/28/2011	HiScan SQ	CMC .5 %	NN_OG	RNA-Seq	PRJNA239561	GEO	public	sra	ncbi	0	PAIRED	cDNA	TRANSCRIPTOMIC	Rattus norvegicus	ILLUMINA	2015-07-22	SRP039021	M	LIVER	Liver	Sprague-Dawley	liver
202	SAMN02666208	SRX477233	Illumina HiScanSQ	2015-12-15	4762	3458	SRR1178003	SRS562928	GSM1336226	R030916-071	181	BETA-NAPHTHOFLAVONE	1500 mg/kg	5 d	0.46	Mix1	AhR	24,721,236	2x101 nt	98524	9.4	ORAL GAVAGE	8/28/2011	HiScan SQ	CMC .5 %	NN_OG	RNA-Seq	PRJNA239561	GEO	public	sra	ncbi	0	PAIRED	cDNA	TRANSCRIPTOMIC	Rattus norvegicus	ILLUMINA	2015-07-22	SRP039021	M	LIVER	Liver	Sprague-Dawley	liver
202	SAMN02666204	SRX477234	Illumina HiScanSQ	2015-09-14	3780	2756	SRR1178004	SRS562929	GSM1336227	CVD040520-006	181	Vehicle	.	5 d	1.57	Mix2	Control	19,622,030	2x101 nt	98611	8.8	INTRAPERITONEAL	8/28/2011	HiScan SQ	SALINE 100 %	NN_IP	RNA-Seq	PRJNA239561	GEO	public	sra	ncbi	0	PAIRED	cDNA	TRANSCRIPTOMIC	Rattus norvegicus	ILLUMINA	2015-07-22	SRP039021	M	LIVER	Liver	Sprague-Dawley	liver
202	SAMN02666163	SRX477235	Illumina HiScanSQ	2015-09-14	4576	3362	SRR1178005	SRS562930	GSM1336228	R030409-001	176	Vehicle	.	5 d	0.58	Mix2	Control	23,755,644	2x101 nt	98619	9.1	ORAL GAVAGE	8/28/2011	HiScan SQ	CMC .5 %	NN_OG	RNA-Seq	PRJNA239561	GEO	public	sra	ncbi	0	PAIRED	cDNA	TRANSCRIPTOMIC	Rattus norvegicus	ILLUMINA	2015-07-22	SRP039021	M	LIVER	Liver	Sprague-Dawley	liver
202	SAMN02666169	SRX477236	Illumina HiScanSQ	2015-09-14	4139	3037	SRR1178006	SRS562931	GSM1336229	CVD040520-002	178	Vehicle	.	1 d	0.69	Mix2	Control	21,488,736	2x101 nt	98681	9.4	INTRAPERITONEAL	8/28/2011	HiScan SQ	SALINE 100 %	NN_IP	RNA-Seq	PRJNA239561	GEO	public	sra	ncbi	0	PAIRED	cDNA	TRANSCRIPTOMIC	Rattus norvegicus	ILLUMINA	2015-07-22	SRP039021	M	LIVER	Liver	Sprague-Dawley	liver
202	SAMN02666158	SRX477237	Illumina HiScanSQ	2015-09-14	3266	2398	SRR1178007	SRS562932	GSM1336230	R030409-003	174	Vehicle	.	5 d	0.46	Mix2	Control	16,955,020	2x101 nt	98741	9.1	ORAL GAVAGE	8/28/2011	HiScan SQ	CMC .5 %	NN_OG	RNA-Seq	PRJNA239561	GEO	public	sra	ncbi	0	PAIRED	cDNA	TRANSCRIPTOMIC	Rattus norvegicus	ILLUMINA	2015-07-22	SRP039021	M	LIVER	Liver	Sprague-Dawley	liver
202	SAMN02666165	SRX477238	Illumina HiScanSQ	2015-12-15	2919	2077	SRR1178008	SRS562933	GSM1336231	S011009-132	174	LEFLUNOMIDE	60 mg/kg	5 d	1.14	Mix1	AhR	15,156,025	2x101 nt	99358	9.1	ORAL GAVAGE	8/28/2011	HiScan SQ	CORN OIL 100 %	NU_OG	RNA-Seq	PRJNA239561	GEO	public	sra	ncbi	0	PAIRED	cDNA	TRANSCRIPTOMIC	Rattus norvegicus	ILLUMINA	2015-07-22	SRP039021	M	LIVER	Liver	Sprague-Dawley	liver
202	SAMN02666170	SRX477239	Illumina HiScanSQ	2015-12-15	3488	2535	SRR1178009	SRS562934	GSM1336232	S011009-130	176	LEFLUNOMIDE	60 mg/kg	5 d	0.43	Mix1	AhR	18,110,490	2x101 nt	99414	8.8	ORAL GAVAGE	8/28/2011	HiScan SQ	CORN OIL 100 %	NU_OG	RNA-Seq	PRJNA239561	GEO	public	sra	ncbi	0	PAIRED	cDNA	TRANSCRIPTOMIC	Rattus norvegicus	ILLUMINA	2015-07-22	SRP039021	M	LIVER	Liver	Sprague-Dawley	liver
202	SAMN02666166	SRX477240	Illumina HiScanSQ	2015-12-15	3577	2587	SRR1178010	SRS562935	GSM1336233	S011009-131	180	LEFLUNOMIDE	60 mg/kg	5 d	0.47	Mix1	AhR	18,572,510	2x101 nt	99430	9.1	ORAL GAVAGE	8/28/2011	HiScan SQ	CORN OIL 100 %	NU_OG	RNA-Seq	PRJNA239561	GEO	public	sra	ncbi	0	PAIRED	cDNA	TRANSCRIPTOMIC	Rattus norvegicus	ILLUMINA	2015-07-22	SRP039021	M	LIVER	Liver	Sprague-Dawley	liver
202	SAMN02666172	SRX477241	Illumina HiScanSQ	2015-12-15	3978	2848	SRR1178011	SRS562936	GSM1336234	S041007-004	178	Vehicle	.	1 d	0.53	Mix2	Control	20,653,684	2x101 nt	99596	9.3	INTRAPERITONEAL	8/28/2011	HiScan SQ	RSA/SALINE .1 %	NN_IP	RNA-Seq	PRJNA239561	GEO	public	sra	ncbi	0	PAIRED	cDNA	TRANSCRIPTOMIC	Rattus norvegicus	ILLUMINA	2015-07-22	SRP039021	M	LIVER	Liver	Sprague-Dawley	liver
202	SAMN02666173	SRX477242	Illumina HiScanSQ	2015-12-15	3525	2557	SRR1178012	SRS562937	GSM1336235	S041007-005	180	Vehicle	.	1 d	0.44	Mix2	Control	18,300,360	2x101 nt	99612	9.1	INTRAPERITONEAL	8/28/2011	HiScan SQ	RSA/SALINE .1 %	NN_IP	RNA-Seq	PRJNA239561	GEO	public	sra	ncbi	0	PAIRED	cDNA	TRANSCRIPTOMIC	Rattus norvegicus	ILLUMINA	2015-07-22	SRP039021	M	LIVER	Liver	Sprague-Dawley	liver
202	SAMN02666167	SRX477243	Illumina HiScanSQ	2015-12-15	3100	2198	SRR1178013	SRS562938	GSM1336236	S011002-030	178	Vehicle	.	1 d	0.76	Mix2	Control	16,094,535	2x101 nt	99728	9.2	INTRAPERITONEAL	8/28/2011	HiScan SQ	SALINE 100 %	NN_IP	RNA-Seq	PRJNA239561	GEO	public	sra	ncbi	0	PAIRED	cDNA	TRANSCRIPTOMIC	Rattus norvegicus	ILLUMINA	2015-07-22	SRP039021	M	LIVER	Liver	Sprague-Dawley	liver
100	SAMN02666171	SRX477244	Illumina HiScanSQ	2015-12-15	1671	1196	SRR1178014	SRS562939	GSM1336237	S011023-215	161	FLUCONAZOLE	394 mg/kg	5 d	2.46	Mix1	CAR/PXR	17,524,736	2x50 nt	97363	9.6	ORAL GAVAGE	4/28/2012	HiScan SQ	CORN OIL 100 %	NU_OG	RNA-Seq	PRJNA239561	GEO	public	sra	ncbi	0	PAIRED	cDNA	TRANSCRIPTOMIC	Rattus norvegicus	ILLUMINA	2015-07-22	SRP039021	M	LIVER	Liver	Sprague-Dawley	liver
100	SAMN02666174	SRX477245	Illumina HiScanSQ	2015-12-15	1952	1399	SRR1178015	SRS562940	GSM1336238	S011016-179	155	MICONAZOLE	920 mg/kg	5 d	2.5	Mix1	CAR/PXR	20,469,350	2x50 nt	97310	9.2	ORAL GAVAGE	4/28/2012	HiScan SQ	CORN OIL 100 %	NU_OG	RNA-Seq	PRJNA239561	GEO	public	sra	ncbi	0	PAIRED	cDNA	TRANSCRIPTOMIC	Rattus norvegicus	ILLUMINA	2015-07-22	SRP039021	M	LIVER	Liver	Sprague-Dawley	liver
100	SAMN02666175	SRX477247	Illumina HiScanSQ	2015-12-15	1794	1287	SRR1178016	SRS562942	GSM1336240	S040311-022	163	Vehicle	.	5 d	1.78	Mix2	Control	18,816,604	2x50 nt	98879	9.4	ORAL GAVAGE	4/28/2012	HiScan SQ	CORN OIL 100 %	NU_OG	RNA-Seq	PRJNA239561	GEO	public	sra	ncbi	0	PAIRED	cDNA	TRANSCRIPTOMIC	Rattus norvegicus	ILLUMINA	2015-07-22	SRP039021	M	LIVER	Liver	Sprague-Dawley	liver
100	SAMN02666182	SRX477248	Illumina HiScanSQ	2015-12-15	1362	975	SRR1178017	SRS562943	GSM1336241	S011023-083	164	ETHINYLESTRADIOL	10 mg/kg	5 d	2.59	Mix2	ER	14,291,215	2x50 nt	50998	9.8	ORAL GAVAGE	4/28/2012	HiScan SQ	CORN OIL 100 %	NU_OG	RNA-Seq	PRJNA239561	GEO	public	sra	ncbi	0	PAIRED	cDNA	TRANSCRIPTOMIC	Rattus norvegicus	ILLUMINA	2015-07-22	SRP039021	M	LIVER	Liver	Sprague-Dawley	liver
100	SAMN02666178	SRX477249	Illumina HiScanSQ	2015-12-15	1528	1090	SRR1178018	SRS562944	GSM1336242	S011030-144	159	NORETHINDRONE	375 mg/kg	5 d	1.77	Mix2	ER	16,026,395	2x50 nt	97338	9.6	ORAL GAVAGE	4/28/2012	HiScan SQ	CORN OIL 100 %	NU_OG	RNA-Seq	PRJNA239561	GEO	public	sra	ncbi	0	PAIRED	cDNA	TRANSCRIPTOMIC	Rattus norvegicus	ILLUMINA	2015-07-22	SRP039021	M	LIVER	Liver	Sprague-Dawley	liver
200	SAMN02666181	SRX477250	Illumina HiScanSQ	2015-12-15	3041	2196	SRR1178019	SRS562945	GSM1336243	S011113-022	164	Vehicle	.	5 d	1.91	Mix1	Control	15,945,415	2x100 nt	97292	9.3	ORAL GAVAGE	3/12/2012	HiScan SQ	CORN OIL 100 %	NU_OG	RNA-Seq	PRJNA239561	GEO	public	sra	ncbi	0	PAIRED	cDNA	TRANSCRIPTOMIC	Rattus norvegicus	ILLUMINA	2015-07-22	SRP039021	M	LIVER	Liver	Sprague-Dawley	liver
200	SAMN02666185	SRX477251	Illumina HiScanSQ	2015-12-15	3052	2202	SRR1178020	SRS562946	GSM1336244	S011127-131	155	CLOTRIMAZOLE	89 mg/kg	5 d	2.14	Mix1	CAR/PXR	16,002,895	2x100 nt	97163	9.3	ORAL GAVAGE	3/12/2012	HiScan SQ	CORN OIL 100 %	NU_OG	RNA-Seq	PRJNA239561	GEO	public	sra	ncbi	0	PAIRED	cDNA	TRANSCRIPTOMIC	Rattus norvegicus	ILLUMINA	2015-07-22	SRP039021	M	LIVER	Liver	Sprague-Dawley	liver
200	SAMN02666179	SRX477252	Illumina HiScanSQ	2015-12-15	3337	2406	SRR1178021	SRS562947	GSM1336245	S011023-214	159	FLUCONAZOLE	394 mg/kg	5 d	2.7	Mix1	CAR/PXR	17,497,920	2x100 nt	97257	9.8	ORAL GAVAGE	3/12/2012	HiScan SQ	CORN OIL 100 %	NU_OG	RNA-Seq	PRJNA239561	GEO	public	sra	ncbi	0	PAIRED	cDNA	TRANSCRIPTOMIC	Rattus norvegicus	ILLUMINA	2015-07-22	SRP039021	M	LIVER	Liver	Sprague-Dawley	liver
200	SAMN02666183	SRX477253	Illumina HiScanSQ	2015-12-15	3014	2174	SRR1178022	SRS562948	GSM1336246	S011016-178	163	MICONAZOLE	920 mg/kg	5 d	2.39	Mix2	CAR/PXR	15,804,330	2x100 nt	97188	9.5	ORAL GAVAGE	3/12/2012	HiScan SQ	CORN OIL 100 %	NU_OG	RNA-Seq	PRJNA239561	GEO	public	sra	ncbi	0	PAIRED	cDNA	TRANSCRIPTOMIC	Rattus norvegicus	ILLUMINA	2015-07-22	SRP039021	M	LIVER	Liver	Sprague-Dawley	liver
200	SAMN02666194	SRX477254	Illumina HiScanSQ	2015-12-15	3066	2212	SRR1178023	SRS562949	GSM1336247	S011113-047	164	BETA-ESTRADIOL	150 mg/kg	5 d	2.12	Mix2	ER	16,076,950	2x100 nt	97217	9.9	ORAL GAVAGE	3/12/2012	HiScan SQ	CORN OIL 100 %	NU_OG	RNA-Seq	PRJNA239561	GEO	public	sra	ncbi	0	PAIRED	cDNA	TRANSCRIPTOMIC	Rattus norvegicus	ILLUMINA	2015-07-22	SRP039021	M	LIVER	Liver	Sprague-Dawley	liver
200	SAMN02666177	SRX477255	Illumina HiScanSQ	2015-12-15	3324	2398	SRR1178024	SRS562950	GSM1336248	S020429-022	163	Vehicle	.	5 d	2.27	Mix2	Control	17,431,750	2x100 nt	98048	9.2	ORAL GAVAGE	3/12/2012	HiScan SQ	CORN OIL 100 %	NU_OG	RNA-Seq	PRJNA239561	GEO	public	sra	ncbi	0	PAIRED	cDNA	TRANSCRIPTOMIC	Rattus norvegicus	ILLUMINA	2015-07-22	SRP039021	M	LIVER	Liver	Sprague-Dawley	liver
200	SAMN02666180	SRX477256	Illumina HiScanSQ	2015-12-15	3666	2632	SRR1178025	SRS562951	GSM1336249	S011023-082	159	ETHINYLESTRADIOL	10 mg/kg	5 d	2.3	Mix1	ER	19,224,744	2x100 nt	50924	9.8	ORAL GAVAGE	3/12/2012	HiScan SQ	CORN OIL 100 %	NU_OG	RNA-Seq	PRJNA239561	GEO	public	sra	ncbi	0	PAIRED	cDNA	TRANSCRIPTOMIC	Rattus norvegicus	ILLUMINA	2015-07-22	SRP039021	M	LIVER	Liver	Sprague-Dawley	liver
200	SAMN02666193	SRX477257	Illumina HiScanSQ	2015-12-15	3811	2732	SRR1178026	SRS562952	GSM1336250	S011030-143	166	NORETHINDRONE	375 mg/kg	5 d	1.89	Mix1	ER	19,985,496	2x100 nt	97159	9.8	ORAL GAVAGE	3/12/2012	HiScan SQ	CORN OIL 100 %	NU_OG	RNA-Seq	PRJNA239561	GEO	public	sra	ncbi	0	PAIRED	cDNA	TRANSCRIPTOMIC	Rattus norvegicus	ILLUMINA	2015-07-22	SRP039021	M	LIVER	Liver	Sprague-Dawley	liver
200	SAMN02666187	SRX477258	Illumina HiScanSQ	2015-12-15	3331	2389	SRR1178027	SRS562953	GSM1336251	S020211-118	156	CERIVASTATIN	7 mg/kg	5 d	1.86	Mix1	HMGCOA	17,466,556	2x100 nt	98166	9.6	ORAL GAVAGE	3/12/2012	HiScan SQ	CORN OIL 100 %	NU_OG	RNA-Seq	PRJNA239561	GEO	public	sra	ncbi	0	PAIRED	cDNA	TRANSCRIPTOMIC	Rattus norvegicus	ILLUMINA	2015-07-22	SRP039021	M	LIVER	Liver	Sprague-Dawley	liver
200	SAMN02666184	SRX477259	Illumina HiScanSQ	2015-12-15	3188	2287	SRR1178028	SRS562954	GSM1336252	S011009-022	163	LOVASTATIN	450 mg/kg	5 d	1.54	Mix2	HMGCOA	16,714,610	2x100 nt	97157	9.7	ORAL GAVAGE	3/12/2012	HiScan SQ	CORN OIL 100 %	NU_OG	RNA-Seq	PRJNA239561	GEO	public	sra	ncbi	0	PAIRED	cDNA	TRANSCRIPTOMIC	Rattus norvegicus	ILLUMINA	2015-07-22	SRP039021	M	LIVER	Liver	Sprague-Dawley	liver
200	SAMN02666199	SRX477260	Illumina HiScanSQ	2015-12-15	2863	2052	SRR1178029	SRS562955	GSM1336253	S011030-117	161	SIMVASTATIN	1200 mg/kg	3 d	1.67	Mix2	HMGCOA	15,015,090	2x100 nt	50899	9.6	ORAL GAVAGE	3/12/2012	HiScan SQ	CORN OIL 100 %	NU_OG	RNA-Seq	PRJNA239561	GEO	public	sra	ncbi	0	PAIRED	cDNA	TRANSCRIPTOMIC	Rattus norvegicus	ILLUMINA	2015-07-22	SRP039021	M	LIVER	Liver	Sprague-Dawley	liver
200	SAMN02666189	SRX477261	Illumina HiScanSQ	2015-12-15	3803	2727	SRR1178030	SRS562957	GSM1336254	R020514-019	158	Vehicle	.	5 d	1.81	Mix2	Control	19,940,230	2x100 nt	98432	9.2	ORAL GAVAGE	3/12/2012	HiScan SQ	CMC .5 %	NN_OG	RNA-Seq	PRJNA239561	GEO	public	sra	ncbi	0	PAIRED	cDNA	TRANSCRIPTOMIC	Rattus norvegicus	ILLUMINA	2015-07-22	SRP039021	M	LIVER	Liver	Sprague-Dawley	liver
200	SAMN02666186	SRX477262	Illumina HiScanSQ	2015-12-15	3315	2178	SRR1178031	SRS562956	GSM1336255	S020429-094	163	CLOFIBRIC ACID	448 mg/kg	5 d	1.76	Mix1	PPARA	17,381,104	2x100 nt	97841	9.4	ORAL GAVAGE	3/12/2012	HiScan SQ	CORN OIL 100 %	NU_OG	RNA-Seq	PRJNA239561	GEO	public	sra	ncbi	0	PAIRED	cDNA	TRANSCRIPTOMIC	Rattus norvegicus	ILLUMINA	2015-07-22	SRP039021	M	LIVER	Liver	Sprague-Dawley	liver
200	SAMN02666198	SRX477263	Illumina HiScanSQ	2015-12-15	4107	2697	SRR1178032	SRS562958	GSM1336256	S011030-046	154	ROSIGLITAZONE	1800 mg/kg	5 d	1.82	Mix1	PPARA	21,532,876	2x100 nt	50919	9.3	ORAL GAVAGE	3/12/2012	HiScan SQ	CORN OIL 100 %	NU_OG	RNA-Seq	PRJNA239561	GEO	public	sra	ncbi	0	PAIRED	cDNA	TRANSCRIPTOMIC	Rattus norvegicus	ILLUMINA	2015-07-22	SRP039021	M	LIVER	Liver	Sprague-Dawley	liver
200	SAMN02666190	SRX477264	Illumina HiScanSQ	2015-12-15	3346	2198	SRR1178033	SRS562959	GSM1336257	S011002-226	156	GEMFIBROZIL	700 mg/kg	7 d	2.35	Mix1	PPARA	17,545,936	2x100 nt	98686	9.4	ORAL GAVAGE	3/12/2012	HiScan SQ	CORN OIL 100 %	NU_OG	RNA-Seq	PRJNA239561	GEO	public	sra	ncbi	0	PAIRED	cDNA	TRANSCRIPTOMIC	Rattus norvegicus	ILLUMINA	2015-07-22	SRP039021	M	LIVER	Liver	Sprague-Dawley	liver
200	SAMN02666132	SRX477265	Illumina HiScanSQ	2015-12-15	3148	2069	SRR1178034	SRS562960	GSM1336258	S020923-118	160	AFLATOXIN B1	0.3 mg/kg	5 d	2.03	Mix2	DNA Damage	16,506,165	2x100 nt	99320	7.7	ORAL GAVAGE	3/12/2012	HiScan SQ	CMC .5 %	NN_OG	RNA-Seq	PRJNA239561	GEO	public	sra	ncbi	0	PAIRED	cDNA	TRANSCRIPTOMIC	Rattus norvegicus	ILLUMINA	2015-07-22	SRP039021	M	LIVER	Liver	Sprague-Dawley	liver
200	SAMN02666123	SRX477266	Illumina HiScanSQ	2015-12-15	2754	1809	SRR1178035	SRS562961	GSM1336259	S020205-020	162	Vehicle	.	5 d	2.21	Mix2	Control	14,440,830	2x100 nt	98197	9.6	ORAL GAVAGE	3/12/2012	HiScan SQ	CORN OIL 100 %	NU_OG	RNA-Seq	PRJNA239561	GEO	public	sra	ncbi	0	PAIRED	cDNA	TRANSCRIPTOMIC	Rattus norvegicus	ILLUMINA	2015-07-22	SRP039021	M	LIVER	Liver	Sprague-Dawley	liver
200	SAMN02666124	SRX477267	Illumina HiScanSQ	2015-12-15	3217	2113	SRR1178036	SRS562962	GSM1336260	S011127-132	160	CLOTRIMAZOLE	89 mg/kg	5 d	1.86	Mix2	CAR/PXR	16,867,270	2x100 nt	97312	9.4	ORAL GAVAGE	3/12/2012	HiScan SQ	CORN OIL 100 %	NU_OG	RNA-Seq	PRJNA239561	GEO	public	sra	ncbi	0	PAIRED	cDNA	TRANSCRIPTOMIC	Rattus norvegicus	ILLUMINA	2015-07-22	SRP039021	M	LIVER	Liver	Sprague-Dawley	liver
200	SAMN02666110	SRX477268	Illumina HiScanSQ	2015-12-15	3225	2323	SRR1178037	SRS562963	GSM1336261	S020211-119	167	CERIVASTATIN	7 mg/kg	5 d	1.72	Mix1	HMGCOA	16,911,470	2x100 nt	98226	9.5	ORAL GAVAGE	3/12/2012	HiScan SQ	CORN OIL 100 %	NU_OG	RNA-Seq	PRJNA239561	GEO	public	sra	ncbi	0	PAIRED	cDNA	TRANSCRIPTOMIC	Rattus norvegicus	ILLUMINA	2015-07-22	SRP039021	M	LIVER	Liver	Sprague-Dawley	liver
200	SAMN02666131	SRX477269	Illumina HiScanSQ	2015-12-15	3986	2870	SRR1178038	SRS562965	GSM1336262	S011009-023	155	LOVASTATIN	450 mg/kg	5 d	1.64	Mix1	HMGCOA	20,899,900	2x100 nt	97326	9.6	ORAL GAVAGE	3/12/2012	HiScan SQ	CORN OIL 100 %	NU_OG	RNA-Seq	PRJNA239561	GEO	public	sra	ncbi	0	PAIRED	cDNA	TRANSCRIPTOMIC	Rattus norvegicus	ILLUMINA	2015-07-22	SRP039021	M	LIVER	Liver	Sprague-Dawley	liver
200	SAMN02666119	SRX477270	Illumina HiScanSQ	2015-12-15	3403	2451	SRR1178039	SRS562964	GSM1336263	S011030-115	155	SIMVASTATIN	1200 mg/kg	3 d	1.91	Mix1	HMGCOA	17,846,120	2x100 nt	50983	9.6	ORAL GAVAGE	3/12/2012	HiScan SQ	CORN OIL 100 %	NU_OG	RNA-Seq	PRJNA239561	GEO	public	sra	ncbi	0	PAIRED	cDNA	TRANSCRIPTOMIC	Rattus norvegicus	ILLUMINA	2015-07-22	SRP039021	M	LIVER	Liver	Sprague-Dawley	liver
200	SAMN02666127	SRX477271	Illumina HiScanSQ	2015-12-15	3152	2274	SRR1178040	SRS562966	GSM1336264	R030409-001	159	Vehicle	.	5 d	1.67	Mix2	Control	16,528,365	2x100 nt	98619	9.1	ORAL GAVAGE	3/12/2012	HiScan SQ	CMC .5 %	NN_OG	RNA-Seq	PRJNA239561	GEO	public	sra	ncbi	0	PAIRED	cDNA	TRANSCRIPTOMIC	Rattus norvegicus	ILLUMINA	2015-07-22	SRP039021	M	LIVER	Liver	Sprague-Dawley	liver
200	SAMN02666128	SRX477272	Illumina HiScanSQ	2015-12-15	2966	2137	SRR1178041	SRS562967	GSM1336265	S020429-095	161	CLOFIBRIC ACID	448 mg/kg	5 d	1.7	Mix2	PPARA	15,552,960	2x100 nt	97943	9.6	ORAL GAVAGE	3/12/2012	HiScan SQ	CORN OIL 100 %	NU_OG	RNA-Seq	PRJNA239561	GEO	public	sra	ncbi	0	PAIRED	cDNA	TRANSCRIPTOMIC	Rattus norvegicus	ILLUMINA	2015-07-22	SRP039021	M	LIVER	Liver	Sprague-Dawley	liver
200	SAMN02666122	SRX477273	Illumina HiScanSQ	2015-12-15	3628	2612	SRR1178042	SRS562968	GSM1336266	S011030-047	157	ROSIGLITAZONE	1800 mg/kg	5 d	1.81	Mix2	PPARA	19,023,624	2x100 nt	50960	9.4	ORAL GAVAGE	3/12/2012	HiScan SQ	CORN OIL 100 %	NU_OG	RNA-Seq	PRJNA239561	GEO	public	sra	ncbi	0	PAIRED	cDNA	TRANSCRIPTOMIC	Rattus norvegicus	ILLUMINA	2015-07-22	SRP039021	M	LIVER	Liver	Sprague-Dawley	liver
200	SAMN02666136	SRX477274	Illumina HiScanSQ	2015-12-15	3375	2431	SRR1178043	SRS562969	GSM1336267	S011002-227	160	GEMFIBROZIL	700 mg/kg	7 d	2.31	Mix1	PPARA	17,695,856	2x100 nt	98722	7.8	ORAL GAVAGE	3/12/2012	HiScan SQ	CORN OIL 100 %	NU_OG	RNA-Seq	PRJNA239561	GEO	public	sra	ncbi	0	PAIRED	cDNA	TRANSCRIPTOMIC	Rattus norvegicus	ILLUMINA	2015-07-22	SRP039021	M	LIVER	Liver	Sprague-Dawley	liver
200	SAMN02666130	SRX477275	Illumina HiScanSQ	2015-12-15	3361	2419	SRR1178044	SRS562971	GSM1336268	S020923-119	153	AFLATOXIN B1	0.3 mg/kg	5 d	2.25	Mix1	DNA Damage	17,626,064	2x100 nt	99328	7.9	ORAL GAVAGE	3/12/2012	HiScan SQ	CMC .5 %	NN_OG	RNA-Seq	PRJNA239561	GEO	public	sra	ncbi	0	PAIRED	cDNA	TRANSCRIPTOMIC	Rattus norvegicus	ILLUMINA	2015-07-22	SRP039021	M	LIVER	Liver	Sprague-Dawley	liver
200	SAMN02666135	SRX477276	Illumina HiScanSQ	2015-12-15	4195	3020	SRR1178045	SRS562970	GSM1336269	S020429-019	154	Vehicle	.	5 d	2.14	Mix1	Control	21,995,490	2x100 nt	97956	9.6	ORAL GAVAGE	3/12/2012	HiScan SQ	CORN OIL 100 %	NU_OG	RNA-Seq	PRJNA239561	GEO	public	sra	ncbi	0	PAIRED	cDNA	TRANSCRIPTOMIC	Rattus norvegicus	ILLUMINA	2015-07-22	SRP039021	M	LIVER	Liver	Sprague-Dawley	liver
200	SAMN02666129	SRX477277	Illumina HiScanSQ	2015-12-15	3366	2427	SRR1178046	SRS562973	GSM1336270	S011127-130	157	CLOTRIMAZOLE	89 mg/kg	5 d	1.57	Mix2	CAR/PXR	17,652,464	2x100 nt	97542	9.6	ORAL GAVAGE	3/12/2012	HiScan SQ	CORN OIL 100 %	NU_OG	RNA-Seq	PRJNA239561	GEO	public	sra	ncbi	0	PAIRED	cDNA	TRANSCRIPTOMIC	Rattus norvegicus	ILLUMINA	2015-07-22	SRP039021	M	LIVER	Liver	Sprague-Dawley	liver
200	SAMN02666137	SRX477278	Illumina HiScanSQ	2015-12-15	3260	2346	SRR1178047	SRS562972	GSM1336271	S011023-216	159	FLUCONAZOLE	394 mg/kg	5 d	2.06	Mix2	CAR/PXR	17,093,290	2x100 nt	97414	9.9	ORAL GAVAGE	3/12/2012	HiScan SQ	CORN OIL 100 %	NU_OG	RNA-Seq	PRJNA239561	GEO	public	sra	ncbi	0	PAIRED	cDNA	TRANSCRIPTOMIC	Rattus norvegicus	ILLUMINA	2015-07-22	SRP039021	M	LIVER	Liver	Sprague-Dawley	liver
200	SAMN02666125	SRX477279	Illumina HiScanSQ	2015-12-15	3256	2341	SRR1178048	SRS562974	GSM1336272	S011016-180	154	MICONAZOLE	920 mg/kg	5 d	3.39	Mix2	CAR/PXR	17,074,796	2x100 nt	97406	9	ORAL GAVAGE	3/12/2012	HiScan SQ	CORN OIL 100 %	NU_OG	RNA-Seq	PRJNA239561	GEO	public	sra	ncbi	0	PAIRED	cDNA	TRANSCRIPTOMIC	Rattus norvegicus	ILLUMINA	2015-07-22	SRP039021	M	LIVER	Liver	Sprague-Dawley	liver
200	SAMN02666126	SRX477280	Illumina HiScanSQ	2015-12-15	3699	2690	SRR1178049	SRS562975	GSM1336273	S011113-046	159	BETA-ESTRADIOL	150 mg/kg	5 d	1.81	Mix1	ER	19,397,940	2x100 nt	97544	9.8	ORAL GAVAGE	3/12/2012	HiScan SQ	CORN OIL 100 %	NU_OG	RNA-Seq	PRJNA239561	GEO	public	sra	ncbi	0	PAIRED	cDNA	TRANSCRIPTOMIC	Rattus norvegicus	ILLUMINA	2015-07-22	SRP039021	M	LIVER	Liver	Sprague-Dawley	liver
200	SAMN02666140	SRX477281	Illumina HiScanSQ	2015-12-15	3068	2229	SRR1178050	SRS562976	GSM1336274	S010924-010	151	Vehicle	.	7 d	1.96	Mix1	Control	16,086,605	2x100 nt	98827	8.7	ORAL GAVAGE	3/12/2012	HiScan SQ	CORN OIL 100 %	NU_OG	RNA-Seq	PRJNA239561	GEO	public	sra	ncbi	0	PAIRED	cDNA	TRANSCRIPTOMIC	Rattus norvegicus	ILLUMINA	2015-07-22	SRP039021	M	LIVER	Liver	Sprague-Dawley	liver
200	SAMN02666138	SRX477282	Illumina HiScanSQ	2015-12-15	3261	2370	SRR1178051	SRS562977	GSM1336275	S011023-084	152	ETHINYLESTRADIOL	10 mg/kg	5 d	2.72	Mix1	ER	17,097,704	2x100 nt	51034	9.3	ORAL GAVAGE	3/12/2012	HiScan SQ	CORN OIL 100 %	NU_OG	RNA-Seq	PRJNA239561	GEO	public	sra	ncbi	0	PAIRED	cDNA	TRANSCRIPTOMIC	Rattus norvegicus	ILLUMINA	2015-07-22	SRP039021	M	LIVER	Liver	Sprague-Dawley	liver
200	SAMN02666139	SRX477283	Illumina HiScanSQ	2015-12-15	3090	2250	SRR1178052	SRS562978	GSM1336276	S011030-142	156	NORETHINDRONE	375 mg/kg	5 d	1.75	Mix2	ER	16,204,540	2x100 nt	97511	9.6	ORAL GAVAGE	3/12/2012	HiScan SQ	CORN OIL 100 %	NU_OG	RNA-Seq	PRJNA239561	GEO	public	sra	ncbi	0	PAIRED	cDNA	TRANSCRIPTOMIC	Rattus norvegicus	ILLUMINA	2015-07-22	SRP039021	M	LIVER	Liver	Sprague-Dawley	liver
200	SAMN02666141	SRX477284	Illumina HiScanSQ	2015-12-15	2328	1693	SRR1178053	SRS562979	GSM1336277	S020211-120	162	CERIVASTATIN	7 mg/kg	5 d	1.58	Mix2	HMGCOA	12,206,425	2x100 nt	98276	9.6	ORAL GAVAGE	3/12/2012	HiScan SQ	CORN OIL 100 %	NU_OG	RNA-Seq	PRJNA239561	GEO	public	sra	ncbi	0	PAIRED	cDNA	TRANSCRIPTOMIC	Rattus norvegicus	ILLUMINA	2015-07-22	SRP039021	M	LIVER	Liver	Sprague-Dawley	liver
200	SAMN02666145	SRX477285	Illumina HiScanSQ	2015-12-15	2804	2036	SRR1178054	SRS562980	GSM1336278	S011009-024	159	LOVASTATIN	450 mg/kg	5 d	1.76	Mix2	HMGCOA	14,701,200	2x100 nt	97405	9.6	ORAL GAVAGE	3/12/2012	HiScan SQ	CORN OIL 100 %	NU_OG	RNA-Seq	PRJNA239561	GEO	public	sra	ncbi	0	PAIRED	cDNA	TRANSCRIPTOMIC	Rattus norvegicus	ILLUMINA	2015-07-22	SRP039021	M	LIVER	Liver	Sprague-Dawley	liver
200	SAMN02666142	SRX477286	Illumina HiScanSQ	2015-12-15	2826	2071	SRR1178055	SRS562981	GSM1336279	S011030-116	156	SIMVASTATIN	1200 mg/kg	3 d	1.87	Mix1	HMGCOA	14,816,535	2x100 nt	51027	9.8	ORAL GAVAGE	3/12/2012	HiScan SQ	CORN OIL 100 %	NU_OG	RNA-Seq	PRJNA239561	GEO	public	sra	ncbi	0	PAIRED	cDNA	TRANSCRIPTOMIC	Rattus norvegicus	ILLUMINA	2015-07-22	SRP039021	M	LIVER	Liver	Sprague-Dawley	liver
200	SAMN02666144	SRX477287	Illumina HiScanSQ	2015-12-15	2901	2125	SRR1178056	SRS562982	GSM1336280	R030409-003	152	Vehicle	.	5 d	1.76	Mix1	Control	15,213,195	2x100 nt	98741	9.1	ORAL GAVAGE	3/12/2012	HiScan SQ	CMC .5 %	NN_OG	RNA-Seq	PRJNA239561	GEO	public	sra	ncbi	0	PAIRED	cDNA	TRANSCRIPTOMIC	Rattus norvegicus	ILLUMINA	2015-07-22	SRP039021	M	LIVER	Liver	Sprague-Dawley	liver
200	SAMN02666150	SRX477288	Illumina HiScanSQ	2015-12-15	3428	2512	SRR1178057	SRS562983	GSM1336281	S020429-096	153	CLOFIBRIC ACID	448 mg/kg	5 d	2.33	Mix1	PPARA	17,976,944	2x100 nt	97961	9.3	ORAL GAVAGE	3/12/2012	HiScan SQ	CORN OIL 100 %	NU_OG	RNA-Seq	PRJNA239561	GEO	public	sra	ncbi	0	PAIRED	cDNA	TRANSCRIPTOMIC	Rattus norvegicus	ILLUMINA	2015-07-22	SRP039021	M	LIVER	Liver	Sprague-Dawley	liver
200	SAMN02666143	SRX477289	Illumina HiScanSQ	2015-12-15	3119	2287	SRR1178058	SRS562984	GSM1336282	S011030-048	156	ROSIGLITAZONE	1800 mg/kg	5 d	2.2	Mix2	PPARA	16,354,600	2x100 nt	50963	9.4	ORAL GAVAGE	3/12/2012	HiScan SQ	CORN OIL 100 %	NU_OG	RNA-Seq	PRJNA239561	GEO	public	sra	ncbi	0	PAIRED	cDNA	TRANSCRIPTOMIC	Rattus norvegicus	ILLUMINA	2015-07-22	SRP039021	M	LIVER	Liver	Sprague-Dawley	liver
200	SAMN02666149	SRX477290	Illumina HiScanSQ	2015-12-15	2562	1876	SRR1178059	SRS562985	GSM1336283	S011002-228	158	GEMFIBROZIL	700 mg/kg	7 d	2.37	Mix2	PPARA	13,433,415	2x100 nt	98767	9.4	ORAL GAVAGE	3/12/2012	HiScan SQ	CORN OIL 100 %	NU_OG	RNA-Seq	PRJNA239561	GEO	public	sra	ncbi	0	PAIRED	cDNA	TRANSCRIPTOMIC	Rattus norvegicus	ILLUMINA	2015-07-22	SRP039021	M	LIVER	Liver	Sprague-Dawley	liver
200	SAMN02666146	SRX477291	Illumina HiScanSQ	2015-12-15	3033	2221	SRR1178060	SRS562986	GSM1336284	S020923-120	154	AFLATOXIN B1	0.3 mg/kg	5 d	2.56	Mix2	DNA Damage	15,903,440	2x100 nt	99336	7.4	ORAL GAVAGE	3/12/2012	HiScan SQ	CMC .5 %	NN_OG	RNA-Seq	PRJNA239561	GEO	public	sra	ncbi	0	PAIRED	cDNA	TRANSCRIPTOMIC	Rattus norvegicus	ILLUMINA	2015-07-22	SRP039021	M	LIVER	Liver	Sprague-Dawley	liver
202	SAMN02666147	SRX477292	Illumina HiSeq 2000	2015-12-15	12187	8649	SRR1178061	SRS562988	GSM1336285	S011211-018	172	Vehicle	.	3 d	0.91	Mix2	Control	63,267,300	2x101 nt	97426	9.5	ORAL GAVAGE	12/16/2011	HiSeq 2000	CORN OIL 100 %	NU_OG	RNA-Seq	PRJNA239561	GEO	public	sra	ncbi	0	PAIRED	cDNA	TRANSCRIPTOMIC	Rattus norvegicus	ILLUMINA	2015-07-22	SRP039021	M	LIVER	Liver	Sprague-Dawley	liver
202	SAMN02666151	SRX477293	Illumina HiSeq 2000	2015-12-15	12239	8682	SRR1178062	SRS562987	GSM1336286	S011127-214	168	Vehicle	.	5 d	0.73	Mix1	Control	63,532,352	2x101 nt	98141	9.5	ORAL GAVAGE	12/16/2011	HiSeq 2000	SALINE 100 %	NN_OG	RNA-Seq	PRJNA239561	GEO	public	sra	ncbi	0	PAIRED	cDNA	TRANSCRIPTOMIC	Rattus norvegicus	ILLUMINA	2015-07-22	SRP039021	M	LIVER	Liver	Sprague-Dawley	liver
202	SAMN02666148	SRX477294	Illumina HiSeq 2000	2015-12-15	8579	6066	SRR1178063	SRS562989	GSM1336287	S010924-008	172	Vehicle	.	3 d	0.69	Mix1	Control	44,533,528	2x101 nt	98329	9.5	ORAL GAVAGE	12/16/2011	HiSeq 2000	CORN OIL 100 %	NU_OG	RNA-Seq	PRJNA239561	GEO	public	sra	ncbi	0	PAIRED	cDNA	TRANSCRIPTOMIC	Rattus norvegicus	ILLUMINA	2015-07-22	SRP039021	M	LIVER	Liver	Sprague-Dawley	liver
202	SAMN02666155	SRX477295	Illumina HiSeq 2000	2015-12-15	11065	7837	SRR1178064	SRS562990	GSM1336288	S010924-004	177	Vehicle	.	1 d	0.43	Mix1	Control	57,439,848	2x101 nt	98348	9.5	ORAL GAVAGE	12/16/2011	HiSeq 2000	CORN OIL 100 %	NU_OG	RNA-Seq	PRJNA239561	GEO	public	sra	ncbi	0	PAIRED	cDNA	TRANSCRIPTOMIC	Rattus norvegicus	ILLUMINA	2015-07-22	SRP039021	M	LIVER	Liver	Sprague-Dawley	liver
202	SAMN02666156	SRX477296	Illumina HiSeq 2000	2015-12-15	6114	4295	SRR1178065	SRS562991	GSM1336289	R020514-019	175	Vehicle	.	5 d	0.59	Mix2	Control	31,741,356	2x101 nt	98432	9.2	ORAL GAVAGE	12/16/2011	HiSeq 2000	CMC .5 %	NN_OG	RNA-Seq	PRJNA239561	GEO	public	sra	ncbi	0	PAIRED	cDNA	TRANSCRIPTOMIC	Rattus norvegicus	ILLUMINA	2015-07-22	SRP039021	M	LIVER	Liver	Sprague-Dawley	liver
202	SAMN02666153	SRX477297	Illumina HiSeq 2000	2015-12-15	10825	7454	SRR1178066	SRS562992	GSM1336290	R031014-023	177	Vehicle	.	5 d	0.79	Mix1	Control	56,193,848	2x101 nt	98482	9.4	ORAL GAVAGE	12/16/2011	HiSeq 2000	CMC .5 %	NN_OG	RNA-Seq	PRJNA239561	GEO	public	sra	ncbi	0	PAIRED	cDNA	TRANSCRIPTOMIC	Rattus norvegicus	ILLUMINA	2015-07-22	SRP039021	M	LIVER	Liver	Sprague-Dawley	liver
202	SAMN02666152	SRX477298	Illumina HiSeq 2000	2015-12-15	7923	5483	SRR1178067	SRS562994	GSM1336291	R030916-024	177	Vehicle	.	5 d	0.63	Mix2	Control	41,130,904	2x101 nt	98543	9.4	ORAL GAVAGE	12/16/2011	HiSeq 2000	CMC .5 %	NN_OG	RNA-Seq	PRJNA239561	GEO	public	sra	ncbi	0	PAIRED	cDNA	TRANSCRIPTOMIC	Rattus norvegicus	ILLUMINA	2015-07-22	SRP039021	M	LIVER	Liver	Sprague-Dawley	liver
202	SAMN02666162	SRX477299	Illumina HiSeq 2000	2015-12-15	9451	6711	SRR1178068	SRS562993	GSM1336292	R030409-001	177	Vehicle	.	5 d	0.58	Mix2	Control	49,061,436	2x101 nt	98619	9.1	ORAL GAVAGE	12/16/2011	HiSeq 2000	CMC .5 %	NN_OG	RNA-Seq	PRJNA239561	GEO	public	sra	ncbi	0	PAIRED	cDNA	TRANSCRIPTOMIC	Rattus norvegicus	ILLUMINA	2015-07-22	SRP039021	M	LIVER	Liver	Sprague-Dawley	liver
202	SAMN02666160	SRX477300	Illumina HiSeq 2000	2015-12-15	5340	3761	SRR1178069	SRS562995	GSM1336293	R030409-003	175	Vehicle	.	5 d	0.46	Mix2	Control	27,722,230	2x101 nt	98741	9.1	ORAL GAVAGE	12/16/2011	HiSeq 2000	CMC .5 %	NN_OG	RNA-Seq	PRJNA239561	GEO	public	sra	ncbi	0	PAIRED	cDNA	TRANSCRIPTOMIC	Rattus norvegicus	ILLUMINA	2015-07-22	SRP039021	M	LIVER	Liver	Sprague-Dawley	liver
202	SAMN02666157	SRX477301	Illumina HiSeq 2000	2015-12-15	8912	6155	SRR1178070	SRS562996	GSM1336294	S011002-033	181	Vehicle	.	3 d	0.64	Mix2	Control	46,264,464	2x101 nt	98893	8.9	INTRAPERITONEAL	12/16/2011	HiSeq 2000	SALINE 100 %	NN_IP	RNA-Seq	PRJNA239561	GEO	public	sra	ncbi	0	PAIRED	cDNA	TRANSCRIPTOMIC	Rattus norvegicus	ILLUMINA	2015-07-22	SRP039021	M	LIVER	Liver	Sprague-Dawley	liver
202	SAMN02666164	SRX477302	Illumina HiSeq 2000	2015-12-15	7590	5340	SRR1178071	SRS562997	GSM1336295	S020923-118	179	AFLATOXIN B1	0.3 mg/kg	5 d	0.73	Mix2	DNA Damage	39,403,336	2x101 nt	99320	7.7	ORAL GAVAGE	12/16/2011	HiSeq 2000	CMC .5 %	NN_OG	RNA-Seq	PRJNA239561	GEO	public	sra	ncbi	0	PAIRED	cDNA	TRANSCRIPTOMIC	Rattus norvegicus	ILLUMINA	2015-07-22	SRP039021	M	LIVER	Liver	Sprague-Dawley	liver
202	SAMN02666161	SRX477303	Illumina HiSeq 2000	2015-12-15	9636	6847	SRR1178072	SRS562998	GSM1336296	S020923-119	174	AFLATOXIN B1	0.3 mg/kg	5 d	0.88	Mix2	DNA Damage	50,021,000	2x101 nt	99328	7.9	ORAL GAVAGE	12/16/2011	HiSeq 2000	CMC .5 %	NN_OG	RNA-Seq	PRJNA239561	GEO	public	sra	ncbi	0	PAIRED	cDNA	TRANSCRIPTOMIC	Rattus norvegicus	ILLUMINA	2015-07-22	SRP039021	M	LIVER	Liver	Sprague-Dawley	liver
202	SAMN02666159	SRX477304	Illumina HiSeq 2000	2015-12-15	10051	6942	SRR1178073	SRS562999	GSM1336297	S020923-120	177	AFLATOXIN B1	0.3 mg/kg	5 d	0.99	Mix2	DNA Damage	52,175,600	2x101 nt	99336	7.4	ORAL GAVAGE	12/16/2011	HiSeq 2000	CMC .5 %	NN_OG	RNA-Seq	PRJNA239561	GEO	public	sra	ncbi	0	PAIRED	cDNA	TRANSCRIPTOMIC	Rattus norvegicus	ILLUMINA	2015-07-22	SRP039021	M	LIVER	Liver	Sprague-Dawley	liver
202	SAMN02666168	SRX477305	Illumina HiSeq 2000	2015-12-15	9668	6849	SRR1178074	SRS563000	GSM1336298	S040311-015	170	Vehicle	.	3 d	0.62	Mix2	Control	50,186,300	2x101 nt	99787	9.1	ORAL GAVAGE	12/16/2011	HiSeq 2000	CORN OIL 100 %	NU_OG	RNA-Seq	PRJNA239561	GEO	public	sra	ncbi	0	PAIRED	cDNA	TRANSCRIPTOMIC	Rattus norvegicus	ILLUMINA	2015-07-22	SRP039021	M	LIVER	Liver	Sprague-Dawley	liver
202	SAMN02666154	SRX477306	Illumina HiSeq 2000	2015-12-15	8094	5661	SRR1178075	SRS563001	GSM1336299	XXV040217-005	171	Vehicle	.	3 d	0.7	Mix1	Control	42,018,904	2x101 nt	99810	9.5	ORAL GAVAGE	12/16/2011	HiSeq 2000	CORN OIL 100 %	NU_OG	RNA-Seq	PRJNA239561	GEO	public	sra	ncbi	0	PAIRED	cDNA	TRANSCRIPTOMIC	Rattus norvegicus	ILLUMINA	2015-07-22	SRP039021	M	LIVER	Liver	Sprague-Dawley	liver
